CVS	System Developer	Developer	Data Analyst	Front End Developer	Junior Java Developer	Junior System Developer	Technical Project Manager	UX-UI Designer	Web Developer
CV1	56	65	16	28	63	80	62	13	49
CV10	0	0	0	0	0	0	0	0	0
CV11	0	0	0	0	0	0	0	0	0
CV12	10	2	9	4	7	8	9	5	4
CV13	0	0	0	0	0	0	0	0	0
CV14	52	11	51	20	51	69	65	20	31
CV15	20	0	7	21	38	23	20	53	26
CV16	21	6	10	6	12	12	14	8	12
CV17	20	0	7	21	23	23	20	53	26
CV18	13	7	14	7	12	12	8	7	12
CV19	0	0	0	0	0	0	0	0	0
CV2	43	36	26	24	42	42	30	12	40
CV20	4	1	2	0	3	5	1	0	4
CV21	66	45	39	39	24	32	29	8	39
CV3	170	105	74	105	119	150	113	39	114
CV4	0	0	0	0	0	0	0	0	0
CV5	206	86	141	126	110	210	236	26	109
CV6	31	11	16	9	24	18	26	8	28
CV7	106	23	55	37	62	144	181	9	26
CV8	17	4	14	10	12	11	18	7	15
CV9	183	62	135	71	124	185	178	33	94
